<?xml version="1.0" encoding="iso-8859-1"?>
<!-- Generator: Adobe Illustrator 19.1.0, SVG Export Plug-In . SVG Version: 6.00 Build 0)  -->
<svg version="1.1" xmlns="http://www.w3.org/2000/svg" xmlns:xlink="http://www.w3.org/1999/xlink" x="0px" y="0px"
	 viewBox="0 0 45.765 37.683" style="enable-background:new 0 0 45.765 37.683;" xml:space="preserve">
<g id="apply">
	<g>
		<path style="fill:#262729;" d="M29.768,8.615H14.45c-0.633,0-1.146,0.513-1.146,1.146s0.513,1.146,1.146,1.146h15.318
			c0.633,0,1.146-0.513,1.146-1.146S30.401,8.615,29.768,8.615z"/>
		<path style="fill:#262729;" d="M29.768,13.24H14.45c-0.633,0-1.146,0.513-1.146,1.146s0.513,1.146,1.146,1.146h15.318
			c0.633,0,1.146-0.513,1.146-1.146S30.401,13.24,29.768,13.24z"/>
		<path style="fill:#262729;" d="M29.768,17.95H14.45c-0.633,0-1.146,0.513-1.146,1.146s0.513,1.146,1.146,1.146h15.318
			c0.633,0,1.146-0.513,1.146-1.146S30.401,17.95,29.768,17.95z"/>
		<path style="fill:#262729;" d="M33.143,35.392c0,0.421-0.343,0.764-0.764,0.764H11.84c-0.421,0-0.764-0.343-0.764-0.764v-1.782
			V6.365c0-0.421,0.343-0.764,0.764-0.764h13.283h7.257c0.421,0,0.764,0.343,0.764,0.764v17.376h1.528V6.365
			c0-1.264-1.028-2.292-2.292-2.292h-7.257V2.292C25.122,1.028,24.094,0,22.831,0H2.292C1.028,0,0,1.028,0,2.292v29.026
			c0,1.264,1.028,2.292,2.292,2.292h7.257v1.782c0,1.263,1.028,2.292,2.292,2.292h20.539c1.264,0,2.292-1.028,2.292-2.292v-0.511
			h-1.528V35.392z"/>
		<path style="fill:#262729;" d="M45.421,28.624l-6.775-6.368c-0.459-0.432-0.835-0.269-0.835,0.361v2.208h-9.162
			c-1.26,0-2.292,1.031-2.292,2.292V31.7c0,1.26,1.031,2.292,2.292,2.292h9.162V36.2c0,0.63,0.376,0.793,0.835,0.361l6.775-6.368
			C45.88,29.762,45.88,29.055,45.421,28.624z"/>
	</g>
</g>
<g id="Layer_1">
</g>
</svg>
